{
    "latitude": 37.8267,
    "longitude": -122.4233,
    "timezone": "America/Los_Angeles",
    "currently": {
        "time": 1551369650,
        "summary": "Overcast",
        "icon": "cloudy",
        "nearestStormDistance": 0,
        "precipIntensity": 0.002,
        "precipIntensityError": 0.0008,
        "precipProbability": 0.03,
        "precipType": "rain",
        "temperature": 49.54,
        "apparentTemperature": 48.04,
        "dewPoint": 40.94,
        "humidity": 0.72,
        "pressure": 1021.25,
        "windSpeed": 4.44,
        "windGust": 7.19,
        "windBearing": 290,
        "cloudCover": 0.97,
        "uvIndex": 0,
        "visibility": 10,
        "ozone": 282.78
    },
    "minutely": {
        "summary": "Overcast for the hour.",
        "icon": "cloudy",
        "data": [
            {
                "time": 1551369600,
                "precipIntensity": 0.002,
                "precipIntensityError": 0,
                "precipProbability": 0.01,
                "precipType": "rain"
            },
            {
                "time": 1551369660,
                "precipIntensity": 0.002,
                "precipIntensityError": 0.001,
                "precipProbability": 0.03,
                "precipType": "rain"
            },
            {
                "time": 1551369720,
                "precipIntensity": 0.002,
                "precipIntensityError": 0.001,
                "precipProbability": 0.06,
                "precipType": "rain"
            },
            {
                "time": 1551369780,
                "precipIntensity": 0.003,
                "precipIntensityError": 0.001,
                "precipProbability": 0.1,
                "precipType": "rain"
            },
            {
                "time": 1551369840,
                "precipIntensity": 0.003,
                "precipIntensityError": 0.001,
                "precipProbability": 0.14,
                "precipType": "rain"
            },
            {
                "time": 1551369900,
                "precipIntensity": 0.003,
                "precipIntensityError": 0.001,
                "precipProbability": 0.18,
                "precipType": "rain"
            },
            {
                "time": 1551369960,
                "precipIntensity": 0.003,
                "precipIntensityError": 0.001,
                "precipProbability": 0.21,
                "precipType": "rain"
            },
            {
                "time": 1551370020,
                "precipIntensity": 0.003,
                "precipIntensityError": 0.001,
                "precipProbability": 0.25,
                "precipType": "rain"
            },
            {
                "time": 1551370080,
                "precipIntensity": 0.003,
                "precipIntensityError": 0.001,
                "precipProbability": 0.27,
                "precipType": "rain"
            },
            {
                "time": 1551370140,
                "precipIntensity": 0.003,
                "precipIntensityError": 0.001,
                "precipProbability": 0.28,
                "precipType": "rain"
            },
            {
                "time": 1551370200,
                "precipIntensity": 0.003,
                "precipIntensityError": 0.001,
                "precipProbability": 0.29,
                "precipType": "rain"
            },
            {
                "time": 1551370260,
                "precipIntensity": 0.003,
                "precipIntensityError": 0.001,
                "precipProbability": 0.3,
                "precipType": "rain"
            },
            {
                "time": 1551370320,
                "precipIntensity": 0.003,
                "precipIntensityError": 0.001,
                "precipProbability": 0.3,
                "precipType": "rain"
            },
            {
                "time": 1551370380,
                "precipIntensity": 0.003,
                "precipIntensityError": 0.001,
                "precipProbability": 0.29,
                "precipType": "rain"
            },
            {
                "time": 1551370440,
                "precipIntensity": 0.003,
                "precipIntensityError": 0.001,
                "precipProbability": 0.29,
                "precipType": "rain"
            },
            {
                "time": 1551370500,
                "precipIntensity": 0.003,
                "precipIntensityError": 0.001,
                "precipProbability": 0.27,
                "precipType": "rain"
            },
            {
                "time": 1551370560,
                "precipIntensity": 0.003,
                "precipIntensityError": 0.001,
                "precipProbability": 0.26,
                "precipType": "rain"
            },
            {
                "time": 1551370620,
                "precipIntensity": 0.003,
                "precipIntensityError": 0.001,
                "precipProbability": 0.25,
                "precipType": "rain"
            },
            {
                "time": 1551370680,
                "precipIntensity": 0.003,
                "precipIntensityError": 0.001,
                "precipProbability": 0.24,
                "precipType": "rain"
            },
            {
                "time": 1551370740,
                "precipIntensity": 0.003,
                "precipIntensityError": 0.001,
                "precipProbability": 0.22,
                "precipType": "rain"
            },
            {
                "time": 1551370800,
                "precipIntensity": 0.003,
                "precipIntensityError": 0.001,
                "precipProbability": 0.21,
                "precipType": "rain"
            },
            {
                "time": 1551370860,
                "precipIntensity": 0.003,
                "precipIntensityError": 0.001,
                "precipProbability": 0.21,
                "precipType": "rain"
            },
            {
                "time": 1551370920,
                "precipIntensity": 0.003,
                "precipIntensityError": 0.001,
                "precipProbability": 0.19,
                "precipType": "rain"
            },
            {
                "time": 1551370980,
                "precipIntensity": 0.003,
                "precipIntensityError": 0.001,
                "precipProbability": 0.18,
                "precipType": "rain"
            },
            {
                "time": 1551371040,
                "precipIntensity": 0.003,
                "precipIntensityError": 0.001,
                "precipProbability": 0.17,
                "precipType": "rain"
            },
            {
                "time": 1551371100,
                "precipIntensity": 0.003,
                "precipIntensityError": 0.001,
                "precipProbability": 0.17,
                "precipType": "rain"
            },
            {
                "time": 1551371160,
                "precipIntensity": 0.003,
                "precipIntensityError": 0.001,
                "precipProbability": 0.15,
                "precipType": "rain"
            },
            {
                "time": 1551371220,
                "precipIntensity": 0.003,
                "precipIntensityError": 0.001,
                "precipProbability": 0.14,
                "precipType": "rain"
            },
            {
                "time": 1551371280,
                "precipIntensity": 0.003,
                "precipIntensityError": 0.001,
                "precipProbability": 0.14,
                "precipType": "rain"
            },
            {
                "time": 1551371340,
                "precipIntensity": 0.003,
                "precipIntensityError": 0.001,
                "precipProbability": 0.13,
                "precipType": "rain"
            },
            {
                "time": 1551371400,
                "precipIntensity": 0.003,
                "precipIntensityError": 0.001,
                "precipProbability": 0.13,
                "precipType": "rain"
            },
            {
                "time": 1551371460,
                "precipIntensity": 0.003,
                "precipIntensityError": 0.001,
                "precipProbability": 0.12,
                "precipType": "rain"
            },
            {
                "time": 1551371520,
                "precipIntensity": 0.003,
                "precipIntensityError": 0.001,
                "precipProbability": 0.12,
                "precipType": "rain"
            },
            {
                "time": 1551371580,
                "precipIntensity": 0.003,
                "precipIntensityError": 0.001,
                "precipProbability": 0.11,
                "precipType": "rain"
            },
            {
                "time": 1551371640,
                "precipIntensity": 0.003,
                "precipIntensityError": 0.001,
                "precipProbability": 0.1,
                "precipType": "rain"
            },
            {
                "time": 1551371700,
                "precipIntensity": 0.003,
                "precipIntensityError": 0.001,
                "precipProbability": 0.1,
                "precipType": "rain"
            },
            {
                "time": 1551371760,
                "precipIntensity": 0.003,
                "precipIntensityError": 0.001,
                "precipProbability": 0.1,
                "precipType": "rain"
            },
            {
                "time": 1551371820,
                "precipIntensity": 0.003,
                "precipIntensityError": 0.001,
                "precipProbability": 0.1,
                "precipType": "rain"
            },
            {
                "time": 1551371880,
                "precipIntensity": 0.003,
                "precipIntensityError": 0.001,
                "precipProbability": 0.1,
                "precipType": "rain"
            },
            {
                "time": 1551371940,
                "precipIntensity": 0.003,
                "precipIntensityError": 0.001,
                "precipProbability": 0.09,
                "precipType": "rain"
            },
            {
                "time": 1551372000,
                "precipIntensity": 0.003,
                "precipIntensityError": 0.001,
                "precipProbability": 0.09,
                "precipType": "rain"
            },
            {
                "time": 1551372060,
                "precipIntensity": 0.003,
                "precipIntensityError": 0.001,
                "precipProbability": 0.08,
                "precipType": "rain"
            },
            {
                "time": 1551372120,
                "precipIntensity": 0,
                "precipProbability": 0
            },
            {
                "time": 1551372180,
                "precipIntensity": 0,
                "precipProbability": 0
            },
            {
                "time": 1551372240,
                "precipIntensity": 0,
                "precipProbability": 0
            },
            {
                "time": 1551372300,
                "precipIntensity": 0,
                "precipProbability": 0
            },
            {
                "time": 1551372360,
                "precipIntensity": 0,
                "precipProbability": 0
            },
            {
                "time": 1551372420,
                "precipIntensity": 0,
                "precipProbability": 0
            },
            {
                "time": 1551372480,
                "precipIntensity": 0,
                "precipProbability": 0
            },
            {
                "time": 1551372540,
                "precipIntensity": 0,
                "precipProbability": 0
            },
            {
                "time": 1551372600,
                "precipIntensity": 0,
                "precipProbability": 0
            },
            {
                "time": 1551372660,
                "precipIntensity": 0,
                "precipProbability": 0
            },
            {
                "time": 1551372720,
                "precipIntensity": 0,
                "precipProbability": 0
            },
            {
                "time": 1551372780,
                "precipIntensity": 0,
                "precipProbability": 0
            },
            {
                "time": 1551372840,
                "precipIntensity": 0,
                "precipProbability": 0
            },
            {
                "time": 1551372900,
                "precipIntensity": 0,
                "precipProbability": 0
            },
            {
                "time": 1551372960,
                "precipIntensity": 0,
                "precipProbability": 0
            },
            {
                "time": 1551373020,
                "precipIntensity": 0,
                "precipProbability": 0
            },
            {
                "time": 1551373080,
                "precipIntensity": 0,
                "precipProbability": 0
            },
            {
                "time": 1551373140,
                "precipIntensity": 0,
                "precipProbability": 0
            },
            {
                "time": 1551373200,
                "precipIntensity": 0,
                "precipProbability": 0
            }
        ]
    },
    "hourly": {
        "summary": "Mostly cloudy throughout the day.",
        "icon": "partly-cloudy-night",
        "data": [
            {
                "time": 1551369600,
                "summary": "Overcast",
                "icon": "cloudy",
                "precipIntensity": 0.0015,
                "precipProbability": 0.3,
                "precipType": "rain",
                "temperature": 49.53,
                "apparentTemperature": 48.02,
                "dewPoint": 40.94,
                "humidity": 0.72,
                "pressure": 1021.24,
                "windSpeed": 4.44,
                "windGust": 7.2,
                "windBearing": 290,
                "cloudCover": 0.98,
                "uvIndex": 0,
                "visibility": 10,
                "ozone": 282.89
            },
            {
                "time": 1551373200,
                "summary": "Mostly Cloudy",
                "icon": "partly-cloudy-day",
                "precipIntensity": 0.0006,
                "precipProbability": 0.13,
                "precipType": "rain",
                "temperature": 50.44,
                "apparentTemperature": 50.44,
                "dewPoint": 40.54,
                "humidity": 0.69,
                "pressure": 1021.69,
                "windSpeed": 4.18,
                "windGust": 6.61,
                "windBearing": 296,
                "cloudCover": 0.85,
                "uvIndex": 1,
                "visibility": 10,
                "ozone": 275.28
            },
            {
                "time": 1551376800,
                "summary": "Partly Cloudy",
                "icon": "partly-cloudy-day",
                "precipIntensity": 0,
                "precipProbability": 0,
                "temperature": 50.94,
                "apparentTemperature": 50.94,
                "dewPoint": 40.66,
                "humidity": 0.68,
                "pressure": 1021.82,
                "windSpeed": 4.7,
                "windGust": 6.43,
                "windBearing": 319,
                "cloudCover": 0.59,
                "uvIndex": 3,
                "visibility": 10,
                "ozone": 269.3
            },
            {
                "time": 1551380400,
                "summary": "Partly Cloudy",
                "icon": "partly-cloudy-day",
                "precipIntensity": 0.0012,
                "precipProbability": 0.03,
                "precipType": "rain",
                "temperature": 51.79,
                "apparentTemperature": 51.79,
                "dewPoint": 40.47,
                "humidity": 0.65,
                "pressure": 1021.55,
                "windSpeed": 5.04,
                "windGust": 6.13,
                "windBearing": 358,
                "cloudCover": 0.42,
                "uvIndex": 4,
                "visibility": 10,
                "ozone": 266.6
            },
            {
                "time": 1551384000,
                "summary": "Partly Cloudy",
                "icon": "partly-cloudy-day",
                "precipIntensity": 0.0017,
                "precipProbability": 0.03,
                "precipType": "rain",
                "temperature": 53.2,
                "apparentTemperature": 53.2,
                "dewPoint": 40.2,
                "humidity": 0.61,
                "pressure": 1021.48,
                "windSpeed": 5.01,
                "windGust": 5.9,
                "windBearing": 248,
                "cloudCover": 0.39,
                "uvIndex": 5,
                "visibility": 10,
                "ozone": 265.59
            },
            {
                "time": 1551387600,
                "summary": "Partly Cloudy",
                "icon": "partly-cloudy-day",
                "precipIntensity": 0,
                "precipProbability": 0,
                "temperature": 54.51,
                "apparentTemperature": 54.51,
                "dewPoint": 39.98,
                "humidity": 0.58,
                "pressure": 1021.05,
                "windSpeed": 5.39,
                "windGust": 5.91,
                "windBearing": 268,
                "cloudCover": 0.39,
                "uvIndex": 5,
                "visibility": 10,
                "ozone": 264.6
            },
            {
                "time": 1551391200,
                "summary": "Mostly Cloudy",
                "icon": "partly-cloudy-day",
                "precipIntensity": 0.0011,
                "precipProbability": 0.03,
                "precipType": "rain",
                "temperature": 55.51,
                "apparentTemperature": 55.51,
                "dewPoint": 39.95,
                "humidity": 0.56,
                "pressure": 1020.74,
                "windSpeed": 5.83,
                "windGust": 5.97,
                "windBearing": 231,
                "cloudCover": 0.68,
                "uvIndex": 4,
                "visibility": 10,
                "ozone": 263.16
            },
            {
                "time": 1551394800,
                "summary": "Mostly Cloudy",
                "icon": "partly-cloudy-day",
                "precipIntensity": 0,
                "precipProbability": 0,
                "temperature": 56.11,
                "apparentTemperature": 56.11,
                "dewPoint": 40.1,
                "humidity": 0.55,
                "pressure": 1020.66,
                "windSpeed": 5.93,
                "windGust": 6.51,
                "windBearing": 317,
                "cloudCover": 0.71,
                "uvIndex": 2,
                "visibility": 10,
                "ozone": 261.91
            },
            {
                "time": 1551398400,
                "summary": "Mostly Cloudy",
                "icon": "partly-cloudy-day",
                "precipIntensity": 0,
                "precipProbability": 0,
                "temperature": 55.7,
                "apparentTemperature": 55.7,
                "dewPoint": 40.45,
                "humidity": 0.56,
                "pressure": 1020.53,
                "windSpeed": 7.26,
                "windGust": 7.38,
                "windBearing": 281,
                "cloudCover": 0.71,
                "uvIndex": 1,
                "visibility": 10,
                "ozone": 260.61
            },
            {
                "time": 1551402000,
                "summary": "Mostly Cloudy",
                "icon": "partly-cloudy-day",
                "precipIntensity": 0,
                "precipProbability": 0,
                "temperature": 54.43,
                "apparentTemperature": 54.43,
                "dewPoint": 40.6,
                "humidity": 0.59,
                "pressure": 1020.42,
                "windSpeed": 7.33,
                "windGust": 7.85,
                "windBearing": 272,
                "cloudCover": 0.78,
                "uvIndex": 0,
                "visibility": 10,
                "ozone": 259.23
            },
            {
                "time": 1551405600,
                "summary": "Mostly Cloudy",
                "icon": "partly-cloudy-night",
                "precipIntensity": 0,
                "precipProbability": 0,
                "temperature": 52.47,
                "apparentTemperature": 52.47,
                "dewPoint": 40.92,
                "humidity": 0.65,
                "pressure": 1020.22,
                "windSpeed": 6.92,
                "windGust": 7.99,
                "windBearing": 286,
                "cloudCover": 0.83,
                "uvIndex": 0,
                "visibility": 10,
                "ozone": 257.89
            },
            {
                "time": 1551409200,
                "summary": "Mostly Cloudy",
                "icon": "partly-cloudy-night",
                "precipIntensity": 0.0015,
                "precipProbability": 0.02,
                "precipType": "rain",
                "temperature": 51.27,
                "apparentTemperature": 51.27,
                "dewPoint": 41.01,
                "humidity": 0.68,
                "pressure": 1020.32,
                "windSpeed": 6.81,
                "windGust": 8.59,
                "windBearing": 290,
                "cloudCover": 0.77,
                "uvIndex": 0,
                "visibility": 10,
                "ozone": 257.41
            },
            {
                "time": 1551412800,
                "summary": "Mostly Cloudy",
                "icon": "partly-cloudy-night",
                "precipIntensity": 0.0014,
                "precipProbability": 0.02,
                "precipType": "rain",
                "temperature": 50.48,
                "apparentTemperature": 50.48,
                "dewPoint": 41.16,
                "humidity": 0.7,
                "pressure": 1020.7,
                "windSpeed": 6.69,
                "windGust": 8.92,
                "windBearing": 294,
                "cloudCover": 0.84,
                "uvIndex": 0,
                "visibility": 10,
                "ozone": 258.72
            },
            {
                "time": 1551416400,
                "summary": "Mostly Cloudy",
                "icon": "partly-cloudy-night",
                "precipIntensity": 0,
                "precipProbability": 0,
                "temperature": 50.15,
                "apparentTemperature": 50.15,
                "dewPoint": 41.37,
                "humidity": 0.72,
                "pressure": 1021.19,
                "windSpeed": 6.23,
                "windGust": 8.52,
                "windBearing": 297,
                "cloudCover": 0.69,
                "uvIndex": 0,
                "visibility": 10,
                "ozone": 260.91
            },
            {
                "time": 1551420000,
                "summary": "Overcast",
                "icon": "cloudy",
                "precipIntensity": 0,
                "precipProbability": 0,
                "temperature": 50.56,
                "apparentTemperature": 50.56,
                "dewPoint": 41.41,
                "humidity": 0.71,
                "pressure": 1021.27,
                "windSpeed": 5.68,
                "windGust": 6.56,
                "windBearing": 306,
                "cloudCover": 0.95,
                "uvIndex": 0,
                "visibility": 10,
                "ozone": 262.27
            },
            {
                "time": 1551423600,
                "summary": "Mostly Cloudy",
                "icon": "partly-cloudy-night",
                "precipIntensity": 0,
                "precipProbability": 0,
                "temperature": 50.51,
                "apparentTemperature": 50.51,
                "dewPoint": 41.58,
                "humidity": 0.71,
                "pressure": 1021.27,
                "windSpeed": 5.39,
                "windGust": 6.29,
                "windBearing": 314,
                "cloudCover": 0.91,
                "uvIndex": 0,
                "visibility": 10,
                "ozone": 261.82
            },
            {
                "time": 1551427200,
                "summary": "Mostly Cloudy",
                "icon": "partly-cloudy-night",
                "precipIntensity": 0,
                "precipProbability": 0,
                "temperature": 50.38,
                "apparentTemperature": 50.38,
                "dewPoint": 41.69,
                "humidity": 0.72,
                "pressure": 1021.08,
                "windSpeed": 5.04,
                "windGust": 6.02,
                "windBearing": 298,
                "cloudCover": 0.85,
                "uvIndex": 0,
                "visibility": 10,
                "ozone": 260.5
            },
            {
                "time": 1551430800,
                "summary": "Mostly Cloudy",
                "icon": "partly-cloudy-night",
                "precipIntensity": 0,
                "precipProbability": 0,
                "temperature": 50.24,
                "apparentTemperature": 50.24,
                "dewPoint": 41.77,
                "humidity": 0.73,
                "pressure": 1020.91,
                "windSpeed": 4.85,
                "windGust": 5.71,
                "windBearing": 301,
                "cloudCover": 0.82,
                "uvIndex": 0,
                "visibility": 10,
                "ozone": 259.74
            },
            {
                "time": 1551434400,
                "summary": "Mostly Cloudy",
                "icon": "partly-cloudy-night",
                "precipIntensity": 0,
                "precipProbability": 0,
                "temperature": 50.1,
                "apparentTemperature": 50.1,
                "dewPoint": 41.79,
                "humidity": 0.73,
                "pressure": 1020.77,
                "windSpeed": 4.35,
                "windGust": 5.38,
                "windBearing": 302,
                "cloudCover": 0.85,
                "uvIndex": 0,
                "visibility": 10,
                "ozone": 260.02
            },
            {
                "time": 1551438000,
                "summary": "Mostly Cloudy",
                "icon": "partly-cloudy-night",
                "precipIntensity": 0,
                "precipProbability": 0,
                "temperature": 49.81,
                "apparentTemperature": 48.79,
                "dewPoint": 41.78,
                "humidity": 0.74,
                "pressure": 1020.65,
                "windSpeed": 3.82,
                "windGust": 5.11,
                "windBearing": 316,
                "cloudCover": 0.92,
                "uvIndex": 0,
                "visibility": 10,
                "ozone": 260.82
            },
            {
                "time": 1551441600,
                "summary": "Mostly Cloudy",
                "icon": "partly-cloudy-night",
                "precipIntensity": 0,
                "precipProbability": 0,
                "temperature": 49.32,
                "apparentTemperature": 48.61,
                "dewPoint": 41.66,
                "humidity": 0.75,
                "pressure": 1020.55,
                "windSpeed": 3.34,
                "windGust": 4.71,
                "windBearing": 319,
                "cloudCover": 0.93,
                "uvIndex": 0,
                "visibility": 10,
                "ozone": 261.94
            },
            {
                "time": 1551445200,
                "summary": "Mostly Cloudy",
                "icon": "partly-cloudy-night",
                "precipIntensity": 0,
                "precipProbability": 0,
                "temperature": 48.48,
                "apparentTemperature": 48.48,
                "dewPoint": 41.49,
                "humidity": 0.77,
                "pressure": 1020.55,
                "windSpeed": 2.85,
                "windGust": 3.99,
                "windBearing": 342,
                "cloudCover": 0.85,
                "uvIndex": 0,
                "visibility": 10,
                "ozone": 263.47
            },
            {
                "time": 1551448800,
                "summary": "Mostly Cloudy",
                "icon": "partly-cloudy-night",
                "precipIntensity": 0,
                "precipProbability": 0,
                "temperature": 47.48,
                "apparentTemperature": 47.48,
                "dewPoint": 41.21,
                "humidity": 0.79,
                "pressure": 1020.61,
                "windSpeed": 2.44,
                "windGust": 3.17,
                "windBearing": 13,
                "cloudCover": 0.71,
                "uvIndex": 0,
                "visibility": 10,
                "ozone": 265.19
            },
            {
                "time": 1551452400,
                "summary": "Mostly Cloudy",
                "icon": "partly-cloudy-day",
                "precipIntensity": 0,
                "precipProbability": 0,
                "temperature": 47.07,
                "apparentTemperature": 47.07,
                "dewPoint": 40.91,
                "humidity": 0.79,
                "pressure": 1020.68,
                "windSpeed": 2.2,
                "windGust": 2.67,
                "windBearing": 36,
                "cloudCover": 0.61,
                "uvIndex": 0,
                "visibility": 10,
                "ozone": 266.52
            },
            {
                "time": 1551456000,
                "summary": "Mostly Cloudy",
                "icon": "partly-cloudy-day",
                "precipIntensity": 0,
                "precipProbability": 0,
                "temperature": 47.68,
                "apparentTemperature": 47.68,
                "dewPoint": 40.69,
                "humidity": 0.77,
                "pressure": 1020.83,
                "windSpeed": 2.26,
                "windGust": 2.7,
                "windBearing": 45,
                "cloudCover": 0.61,
                "uvIndex": 0,
                "visibility": 10,
                "ozone": 267.02
            },
            {
                "time": 1551459600,
                "summary": "Mostly Cloudy",
                "icon": "partly-cloudy-day",
                "precipIntensity": 0.0002,
                "precipProbability": 0.02,
                "precipType": "rain",
                "temperature": 49.05,
                "apparentTemperature": 49.05,
                "dewPoint": 40.45,
                "humidity": 0.72,
                "pressure": 1020.97,
                "windSpeed": 2.45,
                "windGust": 3.01,
                "windBearing": 55,
                "cloudCover": 0.61,
                "uvIndex": 2,
                "visibility": 10,
                "ozone": 267.14
            },
            {
                "time": 1551463200,
                "summary": "Mostly Cloudy",
                "icon": "partly-cloudy-day",
                "precipIntensity": 0.0002,
                "precipProbability": 0.02,
                "precipType": "rain",
                "temperature": 50.47,
                "apparentTemperature": 50.47,
                "dewPoint": 40.21,
                "humidity": 0.68,
                "pressure": 1020.95,
                "windSpeed": 1.48,
                "windGust": 3.2,
                "windBearing": 75,
                "cloudCover": 0.63,
                "uvIndex": 3,
                "visibility": 10,
                "ozone": 267.38
            },
            {
                "time": 1551466800,
                "summary": "Mostly Cloudy",
                "icon": "partly-cloudy-day",
                "precipIntensity": 0,
                "precipProbability": 0,
                "temperature": 52.01,
                "apparentTemperature": 52.01,
                "dewPoint": 39.76,
                "humidity": 0.63,
                "pressure": 1020.67,
                "windSpeed": 1.77,
                "windGust": 3.09,
                "windBearing": 85,
                "cloudCover": 0.65,
                "uvIndex": 4,
                "visibility": 10,
                "ozone": 267.89
            },
            {
                "time": 1551470400,
                "summary": "Mostly Cloudy",
                "icon": "partly-cloudy-day",
                "precipIntensity": 0,
                "precipProbability": 0,
                "temperature": 54.16,
                "apparentTemperature": 54.16,
                "dewPoint": 39.25,
                "humidity": 0.57,
                "pressure": 1020.2,
                "windSpeed": 2.31,
                "windGust": 2.87,
                "windBearing": 74,
                "cloudCover": 0.68,
                "uvIndex": 4,
                "visibility": 10,
                "ozone": 268.41
            },
            {
                "time": 1551474000,
                "summary": "Mostly Cloudy",
                "icon": "partly-cloudy-day",
                "precipIntensity": 0,
                "precipProbability": 0,
                "temperature": 56.32,
                "apparentTemperature": 56.32,
                "dewPoint": 39.15,
                "humidity": 0.52,
                "pressure": 1019.59,
                "windSpeed": 2.41,
                "windGust": 2.84,
                "windBearing": 62,
                "cloudCover": 0.7,
                "uvIndex": 4,
                "visibility": 10,
                "ozone": 269.25
            },
            {
                "time": 1551477600,
                "summary": "Mostly Cloudy",
                "icon": "partly-cloudy-day",
                "precipIntensity": 0,
                "precipProbability": 0,
                "temperature": 57.64,
                "apparentTemperature": 57.64,
                "dewPoint": 39.73,
                "humidity": 0.51,
                "pressure": 1018.7,
                "windSpeed": 2.74,
                "windGust": 3.28,
                "windBearing": 53,
                "cloudCover": 0.76,
                "uvIndex": 3,
                "visibility": 10,
                "ozone": 270.54
            },
            {
                "time": 1551481200,
                "summary": "Mostly Cloudy",
                "icon": "partly-cloudy-day",
                "precipIntensity": 0.0003,
                "precipProbability": 0.02,
                "precipType": "rain",
                "temperature": 58.32,
                "apparentTemperature": 58.32,
                "dewPoint": 40.66,
                "humidity": 0.52,
                "pressure": 1017.66,
                "windSpeed": 3.48,
                "windGust": 4.45,
                "windBearing": 40,
                "cloudCover": 0.83,
                "uvIndex": 2,
                "visibility": 10,
                "ozone": 272.06
            },
            {
                "time": 1551484800,
                "summary": "Mostly Cloudy",
                "icon": "partly-cloudy-day",
                "precipIntensity": 0.0009,
                "precipProbability": 0.02,
                "precipType": "rain",
                "temperature": 58.27,
                "apparentTemperature": 58.27,
                "dewPoint": 41.47,
                "humidity": 0.54,
                "pressure": 1016.81,
                "windSpeed": 4.01,
                "windGust": 5.4,
                "windBearing": 33,
                "cloudCover": 0.87,
                "uvIndex": 1,
                "visibility": 10,
                "ozone": 273.62
            },
            {
                "time": 1551488400,
                "summary": "Mostly Cloudy",
                "icon": "partly-cloudy-day",
                "precipIntensity": 0.0025,
                "precipProbability": 0.03,
                "precipType": "rain",
                "temperature": 57.64,
                "apparentTemperature": 57.64,
                "dewPoint": 42.04,
                "humidity": 0.56,
                "pressure": 1016.4,
                "windSpeed": 4.34,
                "windGust": 5.88,
                "windBearing": 29,
                "cloudCover": 0.87,
                "uvIndex": 0,
                "visibility": 10,
                "ozone": 275.08
            },
            {
                "time": 1551492000,
                "summary": "Mostly Cloudy",
                "icon": "partly-cloudy-night",
                "precipIntensity": 0.006,
                "precipProbability": 0.06,
                "precipType": "rain",
                "temperature": 56.51,
                "apparentTemperature": 56.51,
                "dewPoint": 42.53,
                "humidity": 0.59,
                "pressure": 1016.19,
                "windSpeed": 4.62,
                "windGust": 6.07,
                "windBearing": 28,
                "cloudCover": 0.84,
                "uvIndex": 0,
                "visibility": 10,
                "ozone": 276.52
            },
            {
                "time": 1551495600,
                "summary": "Mostly Cloudy",
                "icon": "partly-cloudy-night",
                "precipIntensity": 0.01,
                "precipProbability": 0.12,
                "precipType": "rain",
                "temperature": 55.5,
                "apparentTemperature": 55.5,
                "dewPoint": 42.86,
                "humidity": 0.62,
                "pressure": 1015.99,
                "windSpeed": 4.76,
                "windGust": 5.96,
                "windBearing": 32,
                "cloudCover": 0.83,
                "uvIndex": 0,
                "visibility": 10,
                "ozone": 277.99
            },
            {
                "time": 1551499200,
                "summary": "Mostly Cloudy",
                "icon": "partly-cloudy-night",
                "precipIntensity": 0.0126,
                "precipProbability": 0.18,
                "precipType": "rain",
                "temperature": 55.07,
                "apparentTemperature": 55.07,
                "dewPoint": 42.93,
                "humidity": 0.64,
                "pressure": 1015.76,
                "windSpeed": 4.5,
                "windGust": 5.21,
                "windBearing": 52,
                "cloudCover": 0.84,
                "uvIndex": 0,
                "visibility": 10,
                "ozone": 279.19
            },
            {
                "time": 1551502800,
                "summary": "Mostly Cloudy",
                "icon": "partly-cloudy-night",
                "precipIntensity": 0.0142,
                "precipProbability": 0.23,
                "precipType": "rain",
                "temperature": 55.03,
                "apparentTemperature": 55.03,
                "dewPoint": 42.87,
                "humidity": 0.64,
                "pressure": 1015.53,
                "windSpeed": 4.07,
                "windGust": 4.43,
                "windBearing": 83,
                "cloudCover": 0.88,
                "uvIndex": 0,
                "visibility": 10,
                "ozone": 280.3
            },
            {
                "time": 1551506400,
                "summary": "Mostly Cloudy",
                "icon": "partly-cloudy-night",
                "precipIntensity": 0.0154,
                "precipProbability": 0.28,
                "precipType": "rain",
                "temperature": 54.86,
                "apparentTemperature": 54.86,
                "dewPoint": 42.95,
                "humidity": 0.64,
                "pressure": 1015.17,
                "windSpeed": 4.18,
                "windGust": 4.51,
                "windBearing": 101,
                "cloudCover": 0.91,
                "uvIndex": 0,
                "visibility": 10,
                "ozone": 281.47
            },
            {
                "time": 1551510000,
                "summary": "Overcast",
                "icon": "cloudy",
                "precipIntensity": 0.017,
                "precipProbability": 0.4,
                "precipType": "rain",
                "temperature": 54.22,
                "apparentTemperature": 54.22,
                "dewPoint": 43.32,
                "humidity": 0.67,
                "pressure": 1014.65,
                "windSpeed": 5.22,
                "windGust": 6.03,
                "windBearing": 100,
                "cloudCover": 0.94,
                "uvIndex": 0,
                "visibility": 10,
                "ozone": 282.32
            },
            {
                "time": 1551513600,
                "summary": "Overcast",
                "icon": "cloudy",
                "precipIntensity": 0.0238,
                "precipProbability": 0.59,
                "precipType": "rain",
                "temperature": 53.24,
                "apparentTemperature": 53.24,
                "dewPoint": 43.86,
                "humidity": 0.7,
                "pressure": 1014.02,
                "windSpeed": 6.8,
                "windGust": 8.92,
                "windBearing": 84,
                "cloudCover": 0.98,
                "uvIndex": 0,
                "visibility": 10,
                "ozone": 283.25
            },
            {
                "time": 1551517200,
                "summary": "Light Rain",
                "icon": "rain",
                "precipIntensity": 0.0375,
                "precipProbability": 0.69,
                "precipType": "rain",
                "temperature": 52.33,
                "apparentTemperature": 52.33,
                "dewPoint": 44.42,
                "humidity": 0.74,
                "pressure": 1013.27,
                "windSpeed": 8.22,
                "windGust": 11.78,
                "windBearing": 67,
                "cloudCover": 1,
                "uvIndex": 0,
                "visibility": 8.23,
                "ozone": 285.76
            },
            {
                "time": 1551520800,
                "summary": "Rain",
                "icon": "rain",
                "precipIntensity": 0.0707,
                "precipProbability": 0.77,
                "precipType": "rain",
                "temperature": 51.54,
                "apparentTemperature": 51.54,
                "dewPoint": 45.03,
                "humidity": 0.78,
                "pressure": 1012.32,
                "windSpeed": 9.43,
                "windGust": 14.22,
                "windBearing": 62,
                "cloudCover": 1,
                "uvIndex": 0,
                "visibility": 7.61,
                "ozone": 291.5
            },
            {
                "time": 1551524400,
                "summary": "Rain",
                "icon": "rain",
                "precipIntensity": 0.1314,
                "precipProbability": 0.79,
                "precipType": "rain",
                "temperature": 50.72,
                "apparentTemperature": 50.72,
                "dewPoint": 45.69,
                "humidity": 0.83,
                "pressure": 1011.25,
                "windSpeed": 10.75,
                "windGust": 16.93,
                "windBearing": 60,
                "cloudCover": 1,
                "uvIndex": 0,
                "visibility": 7.63,
                "ozone": 298.81
            },
            {
                "time": 1551528000,
                "summary": "Rain",
                "icon": "rain",
                "precipIntensity": 0.1642,
                "precipProbability": 0.82,
                "precipType": "rain",
                "temperature": 50.14,
                "apparentTemperature": 50.14,
                "dewPoint": 46.22,
                "humidity": 0.86,
                "pressure": 1010.44,
                "windSpeed": 11.8,
                "windGust": 19.04,
                "windBearing": 58,
                "cloudCover": 1,
                "uvIndex": 0,
                "visibility": 7.46,
                "ozone": 304.71
            },
            {
                "time": 1551531600,
                "summary": "Rain",
                "icon": "rain",
                "precipIntensity": 0.111,
                "precipProbability": 0.82,
                "precipType": "rain",
                "temperature": 49.7,
                "apparentTemperature": 44.99,
                "dewPoint": 46.43,
                "humidity": 0.88,
                "pressure": 1009.97,
                "windSpeed": 12.19,
                "windGust": 19.64,
                "windBearing": 59,
                "cloudCover": 1,
                "uvIndex": 0,
                "visibility": 6.51,
                "ozone": 308.07
            },
            {
                "time": 1551535200,
                "summary": "Light Rain",
                "icon": "rain",
                "precipIntensity": 0.0496,
                "precipProbability": 0.8,
                "precipType": "rain",
                "temperature": 49.47,
                "apparentTemperature": 44.71,
                "dewPoint": 46.45,
                "humidity": 0.89,
                "pressure": 1009.74,
                "windSpeed": 12.14,
                "windGust": 19.36,
                "windBearing": 62,
                "cloudCover": 1,
                "uvIndex": 0,
                "visibility": 5.28,
                "ozone": 310.04
            },
            {
                "time": 1551538800,
                "summary": "Light Rain",
                "icon": "rain",
                "precipIntensity": 0.0307,
                "precipProbability": 0.76,
                "precipType": "rain",
                "temperature": 49.34,
                "apparentTemperature": 44.62,
                "dewPoint": 46.51,
                "humidity": 0.9,
                "pressure": 1009.75,
                "windSpeed": 11.91,
                "windGust": 18.75,
                "windBearing": 64,
                "cloudCover": 1,
                "uvIndex": 0,
                "visibility": 4.71,
                "ozone": 310.97
            },
            {
                "time": 1551542400,
                "summary": "Light Rain",
                "icon": "rain",
                "precipIntensity": 0.023,
                "precipProbability": 0.7,
                "precipType": "rain",
                "temperature": 49.34,
                "apparentTemperature": 44.77,
                "dewPoint": 46.69,
                "humidity": 0.91,
                "pressure": 1010.12,
                "windSpeed": 11.41,
                "windGust": 17.51,
                "windBearing": 62,
                "cloudCover": 1,
                "uvIndex": 0,
                "visibility": 5.62,
                "ozone": 310.89
            }
        ]
    },
    "daily": {
        "summary": "Rain tomorrow and Saturday, with high temperatures peaking at 59°F on Monday.",
        "icon": "rain",
        "data": [
            {
                "time": 1551340800,
                "summary": "Mostly cloudy throughout the day.",
                "icon": "partly-cloudy-day",
                "sunriseTime": 1551365035,
                "sunsetTime": 1551405802,
                "moonPhase": 0.82,
                "precipIntensity": 0.0004,
                "precipIntensityMax": 0.0017,
                "precipIntensityMaxTime": 1551384000,
                "precipProbability": 0.34,
                "precipType": "rain",
                "temperatureHigh": 56.11,
                "temperatureHighTime": 1551394800,
                "temperatureLow": 47.07,
                "temperatureLowTime": 1551452400,
                "apparentTemperatureHigh": 56.11,
                "apparentTemperatureHighTime": 1551394800,
                "apparentTemperatureLow": 47.07,
                "apparentTemperatureLowTime": 1551452400,
                "dewPoint": 41.67,
                "humidity": 0.69,
                "pressure": 1020.45,
                "windSpeed": 4.68,
                "windGust": 8.92,
                "windGustTime": 1551412800,
                "windBearing": 288,
                "cloudCover": 0.81,
                "uvIndex": 5,
                "uvIndexTime": 1551384000,
                "visibility": 9.9,
                "ozone": 272.86,
                "temperatureMin": 49.01,
                "temperatureMinTime": 1551366000,
                "temperatureMax": 56.11,
                "temperatureMaxTime": 1551394800,
                "apparentTemperatureMin": 47.46,
                "apparentTemperatureMinTime": 1551366000,
                "apparentTemperatureMax": 56.11,
                "apparentTemperatureMaxTime": 1551394800
            },
            {
                "time": 1551427200,
                "summary": "Rain overnight.",
                "icon": "rain",
                "sunriseTime": 1551451351,
                "sunsetTime": 1551492262,
                "moonPhase": 0.85,
                "precipIntensity": 0.0033,
                "precipIntensityMax": 0.017,
                "precipIntensityMaxTime": 1551510000,
                "precipProbability": 0.4,
                "precipType": "rain",
                "temperatureHigh": 58.32,
                "temperatureHighTime": 1551481200,
                "temperatureLow": 49.34,
                "temperatureLowTime": 1551538800,
                "apparentTemperatureHigh": 58.32,
                "apparentTemperatureHighTime": 1551481200,
                "apparentTemperatureLow": 44.62,
                "apparentTemperatureLowTime": 1551538800,
                "dewPoint": 41.38,
                "humidity": 0.66,
                "pressure": 1018.83,
                "windSpeed": 2.18,
                "windGust": 6.07,
                "windGustTime": 1551492000,
                "windBearing": 29,
                "cloudCover": 0.79,
                "uvIndex": 4,
                "uvIndexTime": 1551466800,
                "visibility": 10,
                "ozone": 269.77,
                "temperatureMin": 47.07,
                "temperatureMinTime": 1551452400,
                "temperatureMax": 58.32,
                "temperatureMaxTime": 1551481200,
                "apparentTemperatureMin": 47.07,
                "apparentTemperatureMinTime": 1551452400,
                "apparentTemperatureMax": 58.32,
                "apparentTemperatureMaxTime": 1551481200
            },
            {
                "time": 1551513600,
                "summary": "Rain in the morning.",
                "icon": "rain",
                "sunriseTime": 1551537667,
                "sunsetTime": 1551578722,
                "moonPhase": 0.88,
                "precipIntensity": 0.0311,
                "precipIntensityMax": 0.1642,
                "precipIntensityMaxTime": 1551528000,
                "precipProbability": 0.97,
                "precipType": "rain",
                "temperatureHigh": 53.71,
                "temperatureHighTime": 1551574800,
                "temperatureLow": 51.64,
                "temperatureLowTime": 1551625200,
                "apparentTemperatureHigh": 53.71,
                "apparentTemperatureHighTime": 1551574800,
                "apparentTemperatureLow": 51.64,
                "apparentTemperatureLowTime": 1551625200,
                "dewPoint": 47.76,
                "humidity": 0.88,
                "pressure": 1012.57,
                "windSpeed": 7.67,
                "windGust": 19.64,
                "windGustTime": 1551531600,
                "windBearing": 60,
                "cloudCover": 1,
                "uvIndex": 3,
                "uvIndexTime": 1551553200,
                "visibility": 8.71,
                "ozone": 292.91,
                "temperatureMin": 49.01,
                "temperatureMinTime": 1551553200,
                "temperatureMax": 53.71,
                "temperatureMaxTime": 1551574800,
                "apparentTemperatureMin": 44.62,
                "apparentTemperatureMinTime": 1551538800,
                "apparentTemperatureMax": 53.71,
                "apparentTemperatureMaxTime": 1551574800
            },
            {
                "time": 1551600000,
                "summary": "Mostly cloudy until evening.",
                "icon": "partly-cloudy-day",
                "sunriseTime": 1551623981,
                "sunsetTime": 1551665182,
                "moonPhase": 0.91,
                "precipIntensity": 0.0026,
                "precipIntensityMax": 0.0111,
                "precipIntensityMaxTime": 1551639600,
                "precipProbability": 0.5,
                "precipType": "rain",
                "temperatureHigh": 55.5,
                "temperatureHighTime": 1551661200,
                "temperatureLow": 48.39,
                "temperatureLowTime": 1551711600,
                "apparentTemperatureHigh": 55.5,
                "apparentTemperatureHighTime": 1551661200,
                "apparentTemperatureLow": 47.99,
                "apparentTemperatureLowTime": 1551708000,
                "dewPoint": 46.79,
                "humidity": 0.8,
                "pressure": 1018.31,
                "windSpeed": 6.22,
                "windGust": 10.19,
                "windGustTime": 1551664800,
                "windBearing": 248,
                "cloudCover": 0.7,
                "uvIndex": 4,
                "uvIndexTime": 1551643200,
                "visibility": 9.99,
                "ozone": 290.2,
                "temperatureMin": 50.8,
                "temperatureMinTime": 1551679200,
                "temperatureMax": 55.5,
                "temperatureMaxTime": 1551661200,
                "apparentTemperatureMin": 50.8,
                "apparentTemperatureMinTime": 1551679200,
                "apparentTemperatureMax": 55.5,
                "apparentTemperatureMaxTime": 1551661200
            },
            {
                "time": 1551686400,
                "summary": "Mostly cloudy throughout the day.",
                "icon": "partly-cloudy-day",
                "sunriseTime": 1551710295,
                "sunsetTime": 1551751641,
                "moonPhase": 0.94,
                "precipIntensity": 0.0001,
                "precipIntensityMax": 0.0002,
                "precipIntensityMaxTime": 1551697200,
                "precipProbability": 0.06,
                "precipType": "rain",
                "temperatureHigh": 58.7,
                "temperatureHighTime": 1551736800,
                "temperatureLow": 49.6,
                "temperatureLowTime": 1551798000,
                "apparentTemperatureHigh": 58.7,
                "apparentTemperatureHighTime": 1551736800,
                "apparentTemperatureLow": 46.8,
                "apparentTemperatureLowTime": 1551801600,
                "dewPoint": 41,
                "humidity": 0.64,
                "pressure": 1018.82,
                "windSpeed": 3,
                "windGust": 7.52,
                "windGustTime": 1551686400,
                "windBearing": 271,
                "cloudCover": 0.65,
                "uvIndex": 4,
                "uvIndexTime": 1551726000,
                "visibility": 10,
                "ozone": 318.53,
                "temperatureMin": 48.39,
                "temperatureMinTime": 1551711600,
                "temperatureMax": 58.7,
                "temperatureMaxTime": 1551736800,
                "apparentTemperatureMin": 47.99,
                "apparentTemperatureMinTime": 1551708000,
                "apparentTemperatureMax": 58.7,
                "apparentTemperatureMaxTime": 1551736800
            },
            {
                "time": 1551772800,
                "summary": "Overcast throughout the day and breezy overnight.",
                "icon": "wind",
                "sunriseTime": 1551796609,
                "sunsetTime": 1551838100,
                "moonPhase": 0.97,
                "precipIntensity": 0.0028,
                "precipIntensityMax": 0.0086,
                "precipIntensityMaxTime": 1551841200,
                "precipProbability": 0.71,
                "precipType": "rain",
                "temperatureHigh": 53.81,
                "temperatureHighTime": 1551841200,
                "temperatureLow": 53.42,
                "temperatureLowTime": 1551877200,
                "apparentTemperatureHigh": 53.81,
                "apparentTemperatureHighTime": 1551841200,
                "apparentTemperatureLow": 53.42,
                "apparentTemperatureLowTime": 1551877200,
                "dewPoint": 43.59,
                "humidity": 0.73,
                "pressure": 1012.75,
                "windSpeed": 4.85,
                "windGust": 38.92,
                "windGustTime": 1551855600,
                "windBearing": 109,
                "cloudCover": 1,
                "uvIndex": 3,
                "uvIndexTime": 1551812400,
                "visibility": 9.69,
                "ozone": 347.55,
                "temperatureMin": 49.6,
                "temperatureMinTime": 1551798000,
                "temperatureMax": 54.55,
                "temperatureMaxTime": 1551852000,
                "apparentTemperatureMin": 46.8,
                "apparentTemperatureMinTime": 1551801600,
                "apparentTemperatureMax": 54.55,
                "apparentTemperatureMaxTime": 1551852000
            },
            {
                "time": 1551859200,
                "summary": "Breezy and mostly cloudy throughout the day.",
                "icon": "wind",
                "sunriseTime": 1551882922,
                "sunsetTime": 1551924558,
                "moonPhase": 0.01,
                "precipIntensity": 0.0119,
                "precipIntensityMax": 0.0194,
                "precipIntensityMaxTime": 1551913200,
                "precipProbability": 0.96,
                "precipType": "rain",
                "temperatureHigh": 56.4,
                "temperatureHighTime": 1551895200,
                "temperatureLow": 45.81,
                "temperatureLowTime": 1551970800,
                "apparentTemperatureHigh": 56.4,
                "apparentTemperatureHighTime": 1551895200,
                "apparentTemperatureLow": 41.16,
                "apparentTemperatureLowTime": 1551970800,
                "dewPoint": 46.66,
                "humidity": 0.79,
                "pressure": 1008.57,
                "windSpeed": 14.22,
                "windGust": 39.52,
                "windGustTime": 1551859200,
                "windBearing": 215,
                "cloudCover": 0.82,
                "uvIndex": 3,
                "uvIndexTime": 1551898800,
                "visibility": 6.16,
                "ozone": 384.54,
                "temperatureMin": 48.95,
                "temperatureMinTime": 1551942000,
                "temperatureMax": 56.4,
                "temperatureMaxTime": 1551895200,
                "apparentTemperatureMin": 42.8,
                "apparentTemperatureMinTime": 1551942000,
                "apparentTemperatureMax": 56.4,
                "apparentTemperatureMaxTime": 1551895200
            },
            {
                "time": 1551945600,
                "summary": "Foggy in the morning.",
                "icon": "fog",
                "sunriseTime": 1551969234,
                "sunsetTime": 1552011017,
                "moonPhase": 0.04,
                "precipIntensity": 0.0056,
                "precipIntensityMax": 0.0181,
                "precipIntensityMaxTime": 1551974400,
                "precipProbability": 0.72,
                "precipType": "rain",
                "temperatureHigh": 53.31,
                "temperatureHighTime": 1551999600,
                "temperatureLow": 43.61,
                "temperatureLowTime": 1552053600,
                "apparentTemperatureHigh": 53.31,
                "apparentTemperatureHighTime": 1551999600,
                "apparentTemperatureLow": 39.05,
                "apparentTemperatureLowTime": 1552053600,
                "dewPoint": 37.76,
                "humidity": 0.66,
                "pressure": 1018.64,
                "windSpeed": 10.17,
                "windGust": 23.48,
                "windGustTime": 1551945600,
                "windBearing": 279,
                "cloudCover": 0.42,
                "uvIndex": 4,
                "uvIndexTime": 1551992400,
                "visibility": 7.84,
                "ozone": 372.05,
                "temperatureMin": 45.81,
                "temperatureMinTime": 1551970800,
                "temperatureMax": 53.31,
                "temperatureMaxTime": 1551999600,
                "apparentTemperatureMin": 41.16,
                "apparentTemperatureMinTime": 1551970800,
                "apparentTemperatureMax": 53.31,
                "apparentTemperatureMaxTime": 1551999600
            }
        ]
    },
    "flags": {
        "sources": [
            "nearest-precip",
            "nwspa",
            "cmc",
            "gfs",
            "hrrr",
            "icon",
            "isd",
            "madis",
            "nam",
            "sref",
            "darksky"
        ],
        "nearest-station": 1.839,
        "units": "us"
    },
    "offset": -8
}
